<?xml version="1.0" encoding="utf-8"?>
<!-- Generator: Adobe Illustrator 16.0.0, SVG Export Plug-In . SVG Version: 6.00 Build 0)  -->
<!DOCTYPE svg PUBLIC "-//W3C//DTD SVG 1.1//EN" "http://www.w3.org/Graphics/SVG/1.1/DTD/svg11.dtd">
<svg version="1.1" xmlns="http://www.w3.org/2000/svg" xmlns:xlink="http://www.w3.org/1999/xlink" x="0px" y="0px" width="150px"
	 height="150px" viewBox="0 0 150 150" enable-background="new 0 0 150 150" xml:space="preserve">
<g id="Zoom_IN">
</g>
<g id="Zoom_OUT">
</g>
<g id="Musica">
</g>
<g id="Info">
</g>
<g id="Share">
</g>
<g id="Giro">
</g>
<g id="Derecha">
</g>
<g id="Izquierda">
</g>
<g id="Abajo">
	<g opacity="0.5">
		<g opacity="0.75">
			<circle cx="74.657" cy="78.875" r="68.875"/>
		</g>
		<g>
			<circle fill="#FFFFFF" cx="74.657" cy="74.125" r="68.875"/>
		</g>
	</g>
	<g opacity="0.75">
		<g opacity="0.75">
			<polygon points="111.312,60.478 100.777,60.477 75.225,83.841 51.964,59.33 41.378,59.383 41.222,70.334 75.017,104.598 
				111.47,70.334 			"/>
			<polygon fill="none" stroke="#000000" stroke-width="2.7922" stroke-miterlimit="10" points="111.312,60.478 100.777,60.477 
				75.225,83.841 51.964,59.33 41.378,59.383 41.222,70.334 75.017,104.598 111.47,70.334 			"/>
		</g>
		<g>
			<polygon fill="#E66E0D" points="111.312,58.578 100.777,58.577 75.225,81.94 51.964,57.43 41.378,57.483 41.222,68.434 
				75.017,102.697 111.47,68.434 			"/>
			<polygon fill="none" stroke="#FFFFFF" stroke-width="2.7922" stroke-miterlimit="10" points="111.312,58.578 100.777,58.577 
				75.225,81.94 51.964,57.43 41.378,57.483 41.222,68.434 75.017,102.697 111.47,68.434 			"/>
		</g>
	</g>
	<circle fill="none" stroke="#FFFFFF" stroke-width="2.7666" stroke-miterlimit="10" cx="74.99" cy="74" r="68.241"/>
</g>
<g id="Arriba">
</g>
</svg>
